/var/spool/slurmd/job8835633/slurm_script: OMP_PLACES=cores(4); OMP_PROC_BIND=close; OMP_NUM_THREADS=16; srun -n 1088 -c 16 --cpu_bind=cores --mem_bind=map_mem:0 /tmp/Castro3d.intel.mic-knl.MPI.OMP.ex
MPI initialized with 1088 MPI processes
OMP initialized with 16 OMP threads

Starting run at 16:52:59 UTC on 2017-12-06.
Successfully read inputs file ... 

Castro git describe: bf0bf45-dirty
AMReX git describe: bf0bf45-dirty
Microphysics git describe: bf0bf45-dirty

reading extern runtime parameters ...
FORTRAN:Warning:: small_dens has not been set, defaulting to 1.e-200_rt.!
FORTRAN:Warning:: small_temp has not been set, defaulting to 1.e-200_rt.!
 
 Initializing Helmholtz EOS and using Coulomb corrections.
 
 BOXLIB WARN: 
 EOS: small_temp cannot be less than the mintemp allowed by the EOS. Resetting s
 mall_temp to mintemp.
 BOXLIB WARN: 
 EOS: small_dens cannot be less than the mindens allowed by the EOS. Resetting s
 mall_dens to mindens.

Time in ca_set_method_params: 8.460383177
1 Species: 
X  
0 Auxiliary Variables: 

Successfully read inputs file ... 
Starting to call amrex_probinit ... 
Successfully run amrex_probinit
Initializing the data at level 0
Done initializing the level 0 data 
...estimated hydro-limited timestep at level 0: 7.016681651e-07
Castro::estTimeStep (hydro-limited) at level 0:  estdt = 7.016681651e-07
grid_places() time: 12.66850805 new finest: 0
Now regridding at level lbase = 0
grid_places() time: 13.18531013 new finest: 0
STEP = 0 TIME = 0 : REGRID  with lbase = 0


TIME= 0 MASS        = 1e+31
TIME= 0 XMOM        = 0
TIME= 0 YMOM        = 0
TIME= 0 ZMOM        = 0
TIME= 0 ANG MOM X   = 0
TIME= 0 ANG MOM Y   = 0
TIME= 0 ANG MOM Z   = 0
TIME= 0 RHO*e       = 1.000226299e+52
TIME= 0 RHO*K       = 0
TIME= 0 RHO*E       = 1.000226299e+52
INITIAL GRIDS 
  Level 0   32768 grids  1073741824 cells  100 % of domain
            smallest grid: 32 x 32 x 32  biggest grid: 32 x 32 x 32

...estimated hydro-limited timestep at level 0: 7.016681651e-07
Castro::estTimeStep (hydro-limited) at level 0:  estdt = 7.016681651e-07
[Level 0 step 1] ADVANCE with dt = 7.016681651e-09
... hydro MOL stage 0
... hydro MOL stage 1
[Level 0 step 1] Advanced 1073741824 cells

TIME= 7.016681651e-09 MASS        = 1e+31
TIME= 7.016681651e-09 XMOM        = -9.26948858e+20
TIME= 7.016681651e-09 YMOM        = 9.269491313e+20
TIME= 7.016681651e-09 ZMOM        = 8.935141343e+20
TIME= 7.016681651e-09 ANG MOM X   = 6.189695912e+28
TIME= 7.016681651e-09 ANG MOM Y   = -9.457861663e+29
TIME= 7.016681651e-09 ANG MOM Z   = 8.806782734e+29
TIME= 7.016681651e-09 RHO*e       = 1.000226294e+52
TIME= 7.016681651e-09 RHO*K       = 4.740820627e+43
TIME= 7.016681651e-09 RHO*E       = 1.000226299e+52

[STEP 1] Coarse TimeStep time: 37.47188091
[STEP 1] FAB kilobyte spread across MPI nodes: [1574105 ... 1626558]

STEP = 1 TIME = 7.016681651e-09 DT = 7.016681651e-09

...estimated hydro-limited timestep at level 0: 7.014394259e-07
Castro::estTimeStep (hydro-limited) at level 0:  estdt = 7.014394259e-07
Castro::compute_new_dt : limiting dt at level 0
 ... new dt computed: 7.014394259e-07
 ... but limiting to: 7.718349816e-09 = 1.1 * 7.016681651e-09
[Level 0 step 2] ADVANCE with dt = 7.718349816e-09
... hydro MOL stage 0
... hydro MOL stage 1
[Level 0 step 2] Advanced 1073741824 cells

TIME= 1.473503147e-08 MASS        = 1e+31
TIME= 1.473503147e-08 XMOM        = -1.890791201e+21
TIME= 1.473503147e-08 YMOM        = 1.863121659e+21
TIME= 1.473503147e-08 ZMOM        = 1.819310068e+21
TIME= 1.473503147e-08 ANG MOM X   = 9.160747294e+28
TIME= 1.473503147e-08 ANG MOM Y   = -1.819771808e+30
TIME= 1.473503147e-08 ANG MOM Z   = 1.690523165e+30
TIME= 1.473503147e-08 RHO*e       = 1.000226277e+52
TIME= 1.473503147e-08 RHO*K       = 2.218174337e+44
TIME= 1.473503147e-08 RHO*E       = 1.000226299e+52

[STEP 2] Coarse TimeStep time: 21.43118119
[STEP 2] FAB kilobyte spread across MPI nodes: [1574105 ... 1626558]

STEP = 2 TIME = 1.473503147e-08 DT = 7.718349816e-09

...estimated hydro-limited timestep at level 0: 7.011887395e-07
Castro::estTimeStep (hydro-limited) at level 0:  estdt = 7.011887395e-07
Castro::compute_new_dt : limiting dt at level 0
 ... new dt computed: 7.011887395e-07
 ... but limiting to: 8.490184798e-09 = 1.1 * 7.718349816e-09
Now regridding at level lbase = 0
grid_places() time: 2.206393003 new finest: 1
STEP = 2 TIME = 1.473503147e-08 : REGRID  with lbase = 0
  Level 1   3522 grids  18309632 cells  0.2131521702 % of domain
            smallest grid: 8 x 8 x 8  biggest grid: 32 x 32 x 32

[Level 0 step 3] ADVANCE with dt = 8.490184798e-09
... hydro MOL stage 0
... hydro MOL stage 1
[Level 0 step 3] Advanced 1073741824 cells
[Level 1 step 1] ADVANCE with dt = 4.245092399e-09
... hydro MOL stage 0
... hydro MOL stage 1
[Level 1 step 1] Advanced 18309632 cells
[Level 1 step 2] ADVANCE with dt = 4.245092399e-09
... hydro MOL stage 0
... hydro MOL stage 1
[Level 1 step 2] Advanced 18309632 cells
Castro::reflux() at level 0 : time = 3.011110067

TIME= 2.322521627e-08 MASS        = 1e+31
TIME= 2.322521627e-08 XMOM        = -2.970456297e+21
TIME= 2.322521627e-08 YMOM        = 2.977460107e+21
TIME= 2.322521627e-08 ZMOM        = 2.9716822e+21
TIME= 2.322521627e-08 ANG MOM X   = -2.277391729e+35
TIME= 2.322521627e-08 ANG MOM Y   = 1.697197769e+35
TIME= 2.322521627e-08 ANG MOM Z   = -2.649123523e+35
TIME= 2.322521627e-08 RHO*e       = 1.000226237e+52
TIME= 2.322521627e-08 RHO*K       = 6.230374054e+44
TIME= 2.322521627e-08 RHO*E       = 1.000226299e+52

[STEP 3] Coarse TimeStep time: 31.31774521
[STEP 3] FAB kilobyte spread across MPI nodes: [1580407 ... 1635799]

STEP = 3 TIME = 2.322521627e-08 DT = 8.490184798e-09

...estimated hydro-limited timestep at level 0: 7.009347776e-07
Castro::estTimeStep (hydro-limited) at level 0:  estdt = 7.009347776e-07
...estimated hydro-limited timestep at level 1: 3.499476334e-07
Castro::estTimeStep (hydro-limited) at level 1:  estdt = 3.499476334e-07
Castro::compute_new_dt : limiting dt at level 0
 ... new dt computed: 7.009347776e-07
 ... but limiting to: 9.339203278e-09 = 1.1 * 8.490184798e-09
Castro::compute_new_dt : limiting dt at level 1
 ... new dt computed: 3.499476334e-07
 ... but limiting to: 4.669601639e-09 = 1.1 * 4.245092399e-09
Now regridding at level lbase = 1
grid_places() time: 1.868605852 new finest: 2
TIME = 2.322521627e-08 : REGRID  with lbase = 1
  Level 2   8688 grids  59006464 cells  0.08586570621 % of domain
            smallest grid: 8 x 8 x 8  biggest grid: 32 x 32 x 32

[Level 0 step 4] ADVANCE with dt = 9.339203278e-09
... hydro MOL stage 0
... hydro MOL stage 1
[Level 0 step 4] Advanced 1073741824 cells
[Level 1 step 3] ADVANCE with dt = 4.669601639e-09
... hydro MOL stage 0
... hydro MOL stage 1
[Level 1 step 3] Advanced 18309632 cells
[Level 2 step 1] ADVANCE with dt = 2.334800819e-09
... hydro MOL stage 0
... hydro MOL stage 1
[Level 2 step 1] Advanced 59006464 cells
[Level 2 step 2] ADVANCE with dt = 2.334800819e-09
... hydro MOL stage 0
... hydro MOL stage 1
[Level 2 step 2] Advanced 59006464 cells
Castro::reflux() at level 1 : time = 0.4910271168
[Level 1 step 4] ADVANCE with dt = 4.669601639e-09
... hydro MOL stage 0
... hydro MOL stage 1
[Level 1 step 4] Advanced 18309632 cells
[Level 2 step 3] ADVANCE with dt = 2.334800819e-09
... hydro MOL stage 0
... hydro MOL stage 1
[Level 2 step 3] Advanced 59006464 cells
[Level 2 step 4] ADVANCE with dt = 2.334800819e-09
... hydro MOL stage 0
... hydro MOL stage 1
[Level 2 step 4] Advanced 59006464 cells
Castro::reflux() at level 1 : time = 0.4666569233
Castro::reflux() at level 0 : time = 1.866439819

TIME= 3.256441954e-08 MASS        = 1e+31
TIME= 3.256441954e-08 XMOM        = -4.132935364e+21
TIME= 3.256441954e-08 YMOM        = 4.145041039e+21
TIME= 3.256441954e-08 ZMOM        = 4.153255605e+21
TIME= 3.256441954e-08 ANG MOM X   = 2.930674584e+36
TIME= 3.256441954e-08 ANG MOM Y   = -5.455067889e+36
TIME= 3.256441954e-08 ANG MOM Z   = -5.762376118e+36
TIME= 3.256441954e-08 RHO*e       = 1.000226161e+52
TIME= 3.256441954e-08 RHO*K       = 1.381675351e+45
TIME= 3.256441954e-08 RHO*E       = 1.000226299e+52

[STEP 4] Coarse TimeStep time: 39.49641991
[STEP 4] FAB kilobyte spread across MPI nodes: [1617389 ... 1667748]

STEP = 4 TIME = 3.256441954e-08 DT = 9.339203278e-09

...estimated hydro-limited timestep at level 0: 7.006777631e-07
Castro::estTimeStep (hydro-limited) at level 0:  estdt = 7.006777631e-07
...estimated hydro-limited timestep at level 1: 3.49924108e-07
Castro::estTimeStep (hydro-limited) at level 1:  estdt = 3.49924108e-07
...estimated hydro-limited timestep at level 2: 1.748509973e-07
Castro::estTimeStep (hydro-limited) at level 2:  estdt = 1.748509973e-07
Castro::compute_new_dt : limiting dt at level 0
 ... new dt computed: 7.006777631e-07
 ... but limiting to: 1.027312361e-08 = 1.1 * 9.339203278e-09
Castro::compute_new_dt : limiting dt at level 1
 ... new dt computed: 3.49924108e-07
 ... but limiting to: 5.136561803e-09 = 1.1 * 4.669601639e-09
Castro::compute_new_dt : limiting dt at level 2
 ... new dt computed: 1.748509973e-07
 ... but limiting to: 2.568280901e-09 = 1.1 * 2.334800819e-09
Now regridding at level lbase = 0
grid_places() time: 3.033735991 new finest: 2
STEP = 4 TIME = 3.256441954e-08 : REGRID  with lbase = 0
  Level 1   3395 grids  34590720 cells  0.4026889801 % of domain
            smallest grid: 8 x 8 x 8  biggest grid: 32 x 32 x 32
  Level 2   13715 grids  95046656 cells  0.1383110881 % of domain
            smallest grid: 8 x 8 x 8  biggest grid: 32 x 32 x 32

[Level 0 step 5] ADVANCE with dt = 1.027312361e-08
... hydro MOL stage 0
... hydro MOL stage 1
[Level 0 step 5] Advanced 1073741824 cells
[Level 1 step 5] ADVANCE with dt = 5.136561803e-09
... hydro MOL stage 0
... hydro MOL stage 1
[Level 1 step 5] Advanced 34590720 cells
[Level 2 step 5] ADVANCE with dt = 2.568280901e-09
... hydro MOL stage 0
... hydro MOL stage 1
[Level 2 step 5] Advanced 95046656 cells
[Level 2 step 6] ADVANCE with dt = 2.568280901e-09
... hydro MOL stage 0
... hydro MOL stage 1
[Level 2 step 6] Advanced 95046656 cells
Castro::reflux() at level 1 : time = 0.454447031
[Level 1 step 6] ADVANCE with dt = 5.136561803e-09
... hydro MOL stage 0
... hydro MOL stage 1
[Level 1 step 6] Advanced 34590720 cells
[Level 2 step 7] ADVANCE with dt = 2.568280901e-09
... hydro MOL stage 0
... hydro MOL stage 1
[Level 2 step 7] Advanced 95046656 cells
[Level 2 step 8] ADVANCE with dt = 2.568280901e-09
... hydro MOL stage 0
... hydro MOL stage 1
[Level 2 step 8] Advanced 95046656 cells
Castro::reflux() at level 1 : time = 0.4586668015
Castro::reflux() at level 0 : time = 1.630908966

TIME= 4.283754315e-08 MASS        = 1e+31
TIME= 4.283754315e-08 XMOM        = -5.570772595e+21
TIME= 4.283754315e-08 YMOM        = 5.592678104e+21
TIME= 4.283754315e-08 ZMOM        = 5.573799014e+21
TIME= 4.283754315e-08 ANG MOM X   = 2.222462859e+34
TIME= 4.283754315e-08 ANG MOM Y   = 1.461526839e+36
TIME= 4.283754315e-08 ANG MOM Z   = -2.279860127e+35
TIME= 4.283754315e-08 RHO*e       = 1.000226035e+52
TIME= 4.283754315e-08 RHO*K       = 2.645392971e+45
TIME= 4.283754315e-08 RHO*E       = 1.000226299e+52

[STEP 5] Coarse TimeStep time: 45.02382684
[STEP 5] FAB kilobyte spread across MPI nodes: [1636534 ... 1695827]

STEP = 5 TIME = 4.283754315e-08 DT = 1.027312361e-08

...estimated hydro-limited timestep at level 0: 7.003994921e-07
Castro::estTimeStep (hydro-limited) at level 0:  estdt = 7.003994921e-07
...estimated hydro-limited timestep at level 1: 3.497453129e-07
Castro::estTimeStep (hydro-limited) at level 1:  estdt = 3.497453129e-07
...estimated hydro-limited timestep at level 2: 1.745790628e-07
Castro::estTimeStep (hydro-limited) at level 2:  estdt = 1.745790628e-07
Castro::compute_new_dt : limiting dt at level 0
 ... new dt computed: 7.003994921e-07
 ... but limiting to: 1.130043597e-08 = 1.1 * 1.027312361e-08
Castro::compute_new_dt : limiting dt at level 1
 ... new dt computed: 3.497453129e-07
 ... but limiting to: 5.650217983e-09 = 1.1 * 5.136561803e-09
Castro::compute_new_dt : limiting dt at level 2
 ... new dt computed: 1.745790628e-07
 ... but limiting to: 2.825108992e-09 = 1.1 * 2.568280901e-09
Now regridding at level lbase = 1
grid_places() time: 1.737436056 new finest: 2
TIME = 4.283754315e-08 : REGRID  with lbase = 1
  Level 2   14947 grids  94275072 cells  0.1371882856 % of domain
            smallest grid: 8 x 8 x 8  biggest grid: 32 x 32 x 32

[Level 0 step 6] ADVANCE with dt = 1.130043597e-08
... hydro MOL stage 0
... hydro MOL stage 1
[Level 0 step 6] Advanced 1073741824 cells
[Level 1 step 7] ADVANCE with dt = 5.650217983e-09
... hydro MOL stage 0
... hydro MOL stage 1
[Level 1 step 7] Advanced 34590720 cells
[Level 2 step 9] ADVANCE with dt = 2.825108992e-09
... hydro MOL stage 0
... hydro MOL stage 1
[Level 2 step 9] Advanced 94275072 cells
[Level 2 step 10] ADVANCE with dt = 2.825108992e-09
... hydro MOL stage 0
... hydro MOL stage 1
[Level 2 step 10] Advanced 94275072 cells
Castro::reflux() at level 1 : time = 0.801928997
[Level 1 step 8] ADVANCE with dt = 5.650217983e-09
... hydro MOL stage 0
... hydro MOL stage 1
[Level 1 step 8] Advanced 34590720 cells
[Level 2 step 11] ADVANCE with dt = 2.825108992e-09
... hydro MOL stage 0
... hydro MOL stage 1
[Level 2 step 11] Advanced 94275072 cells
[Level 2 step 12] ADVANCE with dt = 2.825108992e-09
... hydro MOL stage 0
... hydro MOL stage 1
[Level 2 step 12] Advanced 94275072 cells
Castro::reflux() at level 1 : time = 0.5212111473
Castro::reflux() at level 0 : time = 1.520452023

TIME= 5.413797911e-08 MASS        = 1e+31
TIME= 5.413797911e-08 XMOM        = -7.181259822e+21
TIME= 5.413797911e-08 YMOM        = 7.16425423e+21
TIME= 5.413797911e-08 ZMOM        = 7.144078103e+21
TIME= 5.413797911e-08 ANG MOM X   = 1.514450323e+35
TIME= 5.413797911e-08 ANG MOM Y   = 1.706361953e+36
TIME= 5.413797911e-08 ANG MOM Z   = -4.385025819e+35
TIME= 5.413797911e-08 RHO*e       = 1.000225842e+52
TIME= 5.413797911e-08 RHO*K       = 4.568699013e+45
TIME= 5.413797911e-08 RHO*E       = 1.000226299e+52

[STEP 6] Coarse TimeStep time: 43.58034086
[STEP 6] FAB kilobyte spread across MPI nodes: [1643810 ... 1702588]

STEP = 6 TIME = 5.413797911e-08 DT = 1.130043597e-08

...estimated hydro-limited timestep at level 0: 7.000985665e-07
Castro::estTimeStep (hydro-limited) at level 0:  estdt = 7.000985665e-07
...estimated hydro-limited timestep at level 1: 3.494032136e-07
Castro::estTimeStep (hydro-limited) at level 1:  estdt = 3.494032136e-07
...estimated hydro-limited timestep at level 2: 1.742034733e-07
Castro::estTimeStep (hydro-limited) at level 2:  estdt = 1.742034733e-07
Castro::compute_new_dt : limiting dt at level 0
 ... new dt computed: 7.000985665e-07
 ... but limiting to: 1.243047956e-08 = 1.1 * 1.130043597e-08
Castro::compute_new_dt : limiting dt at level 1
 ... new dt computed: 3.494032136e-07
 ... but limiting to: 6.215239781e-09 = 1.1 * 5.650217983e-09
Castro::compute_new_dt : limiting dt at level 2
 ... new dt computed: 1.742034733e-07
 ... but limiting to: 3.107619891e-09 = 1.1 * 2.825108992e-09
Now regridding at level lbase = 0
grid_places() time: 3.153348923 new finest: 2
STEP = 6 TIME = 5.413797911e-08 : REGRID  with lbase = 0
  Level 1   3576 grids  34690048 cells  0.4038453102 % of domain
            smallest grid: 8 x 8 x 8  biggest grid: 32 x 32 x 32
  Level 2   14184 grids  96035328 cells  0.1397497952 % of domain
            smallest grid: 8 x 8 x 8  biggest grid: 32 x 32 x 32

[Level 0 step 7] ADVANCE with dt = 1.243047956e-08
... hydro MOL stage 0
... hydro MOL stage 1
[Level 0 step 7] Advanced 1073741824 cells
[Level 1 step 9] ADVANCE with dt = 6.215239781e-09
... hydro MOL stage 0
... hydro MOL stage 1
[Level 1 step 9] Advanced 34690048 cells
[Level 2 step 13] ADVANCE with dt = 3.107619891e-09
... hydro MOL stage 0
... hydro MOL stage 1
[Level 2 step 13] Advanced 96035328 cells
[Level 2 step 14] ADVANCE with dt = 3.107619891e-09
... hydro MOL stage 0
... hydro MOL stage 1
[Level 2 step 14] Advanced 96035328 cells
Castro::reflux() at level 1 : time = 0.5552639961
[Level 1 step 10] ADVANCE with dt = 6.215239781e-09
... hydro MOL stage 0
... hydro MOL stage 1
[Level 1 step 10] Advanced 34690048 cells
[Level 2 step 15] ADVANCE with dt = 3.107619891e-09
... hydro MOL stage 0
... hydro MOL stage 1
[Level 2 step 15] Advanced 96035328 cells
[Level 2 step 16] ADVANCE with dt = 3.107619891e-09
... hydro MOL stage 0
... hydro MOL stage 1
[Level 2 step 16] Advanced 96035328 cells
Castro::reflux() at level 1 : time = 0.5505828857
Castro::reflux() at level 0 : time = 1.582134962

TIME= 6.656845868e-08 MASS        = 1e+31
TIME= 6.656845868e-08 XMOM        = -8.905886278e+21
TIME= 6.656845868e-08 YMOM        = 8.930493946e+21
TIME= 6.656845868e-08 ZMOM        = 8.938600425e+21
TIME= 6.656845868e-08 ANG MOM X   = 2.777770775e+35
TIME= 6.656845868e-08 ANG MOM Y   = 1.415478464e+36
TIME= 6.656845868e-08 ANG MOM Z   = -2.31551805e+35
TIME= 6.656845868e-08 RHO*e       = 1.000225566e+52
TIME= 6.656845868e-08 RHO*K       = 7.332172647e+45
TIME= 6.656845868e-08 RHO*E       = 1.000226299e+52

[STEP 7] Coarse TimeStep time: 45.49151301
[STEP 7] FAB kilobyte spread across MPI nodes: [1645591 ... 1702935]

STEP = 7 TIME = 6.656845868e-08 DT = 1.243047956e-08

...estimated hydro-limited timestep at level 0: 6.997737242e-07
Castro::estTimeStep (hydro-limited) at level 0:  estdt = 6.997737242e-07
...estimated hydro-limited timestep at level 1: 3.490338394e-07
Castro::estTimeStep (hydro-limited) at level 1:  estdt = 3.490338394e-07
...estimated hydro-limited timestep at level 2: 1.737998892e-07
Castro::estTimeStep (hydro-limited) at level 2:  estdt = 1.737998892e-07
Castro::compute_new_dt : limiting dt at level 0
 ... new dt computed: 6.997737242e-07
 ... but limiting to: 1.367352752e-08 = 1.1 * 1.243047956e-08
Castro::compute_new_dt : limiting dt at level 1
 ... new dt computed: 3.490338394e-07
 ... but limiting to: 6.836763759e-09 = 1.1 * 6.215239781e-09
Castro::compute_new_dt : limiting dt at level 2
 ... new dt computed: 1.737998892e-07
 ... but limiting to: 3.41838188e-09 = 1.1 * 3.107619891e-09
Now regridding at level lbase = 1
grid_places() time: 1.889587879 new finest: 2
TIME = 6.656845868e-08 : REGRID  with lbase = 1
  Level 2   15225 grids  95067136 cells  0.1383408904 % of domain
            smallest grid: 8 x 8 x 8  biggest grid: 32 x 32 x 32

[Level 0 step 8] ADVANCE with dt = 1.367352752e-08
... hydro MOL stage 0
... hydro MOL stage 1
[Level 0 step 8] Advanced 1073741824 cells
[Level 1 step 11] ADVANCE with dt = 6.836763759e-09
... hydro MOL stage 0
... hydro MOL stage 1
[Level 1 step 11] Advanced 34690048 cells
[Level 2 step 17] ADVANCE with dt = 3.41838188e-09
... hydro MOL stage 0
... hydro MOL stage 1
[Level 2 step 17] Advanced 95067136 cells
[Level 2 step 18] ADVANCE with dt = 3.41838188e-09
... hydro MOL stage 0
... hydro MOL stage 1
[Level 2 step 18] Advanced 95067136 cells
Castro::reflux() at level 1 : time = 0.5649750233
[Level 1 step 12] ADVANCE with dt = 6.836763759e-09
... hydro MOL stage 0
... hydro MOL stage 1
[Level 1 step 12] Advanced 34690048 cells
[Level 2 step 19] ADVANCE with dt = 3.41838188e-09
... hydro MOL stage 0
... hydro MOL stage 1
[Level 2 step 19] Advanced 95067136 cells
[Level 2 step 20] ADVANCE with dt = 3.41838188e-09
... hydro MOL stage 0
... hydro MOL stage 1
[Level 2 step 20] Advanced 95067136 cells
Castro::reflux() at level 1 : time = 0.4927420616
Castro::reflux() at level 0 : time = 1.52709794

TIME= 8.02419862e-08 MASS        = 1e+31
TIME= 8.02419862e-08 XMOM        = -1.083400338e+22
TIME= 8.02419862e-08 YMOM        = 1.083371515e+22
TIME= 8.02419862e-08 ZMOM        = 1.082881523e+22
TIME= 8.02419862e-08 ANG MOM X   = 1.158769979e+35
TIME= 8.02419862e-08 ANG MOM Y   = 1.293694887e+36
TIME= 8.02419862e-08 ANG MOM Z   = -4.658073187e+35
TIME= 8.02419862e-08 RHO*e       = 1.000225185e+52
TIME= 8.02419862e-08 RHO*K       = 1.114440244e+46
TIME= 8.02419862e-08 RHO*E       = 1.000226299e+52

[STEP 8] Coarse TimeStep time: 43.22494888
[STEP 8] FAB kilobyte spread across MPI nodes: [1651161 ... 1704969]

STEP = 8 TIME = 8.02419862e-08 DT = 1.367352752e-08

...estimated hydro-limited timestep at level 0: 6.994237622e-07
Castro::estTimeStep (hydro-limited) at level 0:  estdt = 6.994237622e-07
...estimated hydro-limited timestep at level 1: 3.486358093e-07
Castro::estTimeStep (hydro-limited) at level 1:  estdt = 3.486358093e-07
...estimated hydro-limited timestep at level 2: 1.733673596e-07
Castro::estTimeStep (hydro-limited) at level 2:  estdt = 1.733673596e-07
Castro::compute_new_dt : limiting dt at level 0
 ... new dt computed: 6.994237622e-07
 ... but limiting to: 1.504088027e-08 = 1.1 * 1.367352752e-08
Castro::compute_new_dt : limiting dt at level 1
 ... new dt computed: 3.486358093e-07
 ... but limiting to: 7.520440135e-09 = 1.1 * 6.836763759e-09
Castro::compute_new_dt : limiting dt at level 2
 ... new dt computed: 1.733673596e-07
 ... but limiting to: 3.760220068e-09 = 1.1 * 3.41838188e-09
Now regridding at level lbase = 0
grid_places() time: 2.950238943 new finest: 2
STEP = 8 TIME = 8.02419862e-08 : REGRID  with lbase = 0
  Level 1   3472 grids  34707968 cells  0.4040539265 % of domain
            smallest grid: 8 x 8 x 8  biggest grid: 32 x 32 x 32
  Level 2   14283 grids  96576512 cells  0.1405373216 % of domain
            smallest grid: 8 x 8 x 8  biggest grid: 32 x 32 x 32

[Level 0 step 9] ADVANCE with dt = 1.504088027e-08
... hydro MOL stage 0
... hydro MOL stage 1
[Level 0 step 9] Advanced 1073741824 cells
[Level 1 step 13] ADVANCE with dt = 7.520440135e-09
... hydro MOL stage 0
... hydro MOL stage 1
[Level 1 step 13] Advanced 34707968 cells
[Level 2 step 21] ADVANCE with dt = 3.760220068e-09
... hydro MOL stage 0
... hydro MOL stage 1
[Level 2 step 21] Advanced 96576512 cells
[Level 2 step 22] ADVANCE with dt = 3.760220068e-09
... hydro MOL stage 0
... hydro MOL stage 1
[Level 2 step 22] Advanced 96576512 cells
Castro::reflux() at level 1 : time = 0.4790589809
[Level 1 step 14] ADVANCE with dt = 7.520440135e-09
... hydro MOL stage 0
... hydro MOL stage 1
[Level 1 step 14] Advanced 34707968 cells
[Level 2 step 23] ADVANCE with dt = 3.760220068e-09
... hydro MOL stage 0
... hydro MOL stage 1
[Level 2 step 23] Advanced 96576512 cells
[Level 2 step 24] ADVANCE with dt = 3.760220068e-09
... hydro MOL stage 0
... hydro MOL stage 1
[Level 2 step 24] Advanced 96576512 cells
Castro::reflux() at level 1 : time = 0.5235869884
Castro::reflux() at level 0 : time = 1.62049222

TIME= 9.528286647e-08 MASS        = 1e+31
TIME= 9.528286647e-08 XMOM        = -1.294327327e+22
TIME= 9.528286647e-08 YMOM        = 1.295192018e+22
TIME= 9.528286647e-08 ZMOM        = 1.299227244e+22
TIME= 9.528286647e-08 ANG MOM X   = -2.07115802e+33
TIME= 9.528286647e-08 ANG MOM Y   = 1.494883851e+36
TIME= 9.528286647e-08 ANG MOM Z   = -3.957375666e+35
TIME= 9.528286647e-08 RHO*e       = 1.000224673e+52
TIME= 9.528286647e-08 RHO*K       = 1.625719665e+46
TIME= 9.528286647e-08 RHO*E       = 1.000226299e+52

[STEP 9] Coarse TimeStep time: 44.86009693
[STEP 9] FAB kilobyte spread across MPI nodes: [1651161 ... 1705006]

STEP = 9 TIME = 9.528286647e-08 DT = 1.504088027e-08

...estimated hydro-limited timestep at level 0: 6.990082555e-07
Castro::estTimeStep (hydro-limited) at level 0:  estdt = 6.990082555e-07
...estimated hydro-limited timestep at level 1: 3.482078394e-07
Castro::estTimeStep (hydro-limited) at level 1:  estdt = 3.482078394e-07
...estimated hydro-limited timestep at level 2: 1.729051611e-07
Castro::estTimeStep (hydro-limited) at level 2:  estdt = 1.729051611e-07
Castro::compute_new_dt : limiting dt at level 0
 ... new dt computed: 6.990082555e-07
 ... but limiting to: 1.65449683e-08 = 1.1 * 1.504088027e-08
Castro::compute_new_dt : limiting dt at level 1
 ... new dt computed: 3.482078394e-07
 ... but limiting to: 8.272484149e-09 = 1.1 * 7.520440135e-09
Castro::compute_new_dt : limiting dt at level 2
 ... new dt computed: 1.729051611e-07
 ... but limiting to: 4.136242074e-09 = 1.1 * 3.760220068e-09
Now regridding at level lbase = 1
grid_places() time: 2.153994083 new finest: 2
TIME = 9.528286647e-08 : REGRID  with lbase = 1
  Level 2   15116 grids  96356352 cells  0.1402169466 % of domain
            smallest grid: 8 x 8 x 8  biggest grid: 32 x 32 x 32

[Level 0 step 10] ADVANCE with dt = 1.65449683e-08
... hydro MOL stage 0
... hydro MOL stage 1
[Level 0 step 10] Advanced 1073741824 cells
[Level 1 step 15] ADVANCE with dt = 8.272484149e-09
... hydro MOL stage 0
... hydro MOL stage 1
[Level 1 step 15] Advanced 34707968 cells
[Level 2 step 25] ADVANCE with dt = 4.136242074e-09
... hydro MOL stage 0
... hydro MOL stage 1
[Level 2 step 25] Advanced 96356352 cells
[Level 2 step 26] ADVANCE with dt = 4.136242074e-09
... hydro MOL stage 0
... hydro MOL stage 1
[Level 2 step 26] Advanced 96356352 cells
Castro::reflux() at level 1 : time = 0.4393122196
[Level 1 step 16] ADVANCE with dt = 8.272484149e-09
... hydro MOL stage 0
... hydro MOL stage 1
[Level 1 step 16] Advanced 34707968 cells
[Level 2 step 27] ADVANCE with dt = 4.136242074e-09
... hydro MOL stage 0
... hydro MOL stage 1
[Level 2 step 27] Advanced 96356352 cells
[Level 2 step 28] ADVANCE with dt = 4.136242074e-09
... hydro MOL stage 0
... hydro MOL stage 1
[Level 2 step 28] Advanced 96356352 cells
Castro::reflux() at level 1 : time = 0.5402538776
Castro::reflux() at level 0 : time = 1.604444027

TIME= 1.118278348e-07 MASS        = 1e+31
TIME= 1.118278348e-07 XMOM        = -1.523816353e+22
TIME= 1.118278348e-07 YMOM        = 1.527534524e+22
TIME= 1.118278348e-07 ZMOM        = 1.528543331e+22
TIME= 1.118278348e-07 ANG MOM X   = 9.354480475e+34
TIME= 1.118278348e-07 ANG MOM Y   = 1.521700689e+36
TIME= 1.118278348e-07 ANG MOM Z   = -4.172310779e+35
TIME= 1.118278348e-07 RHO*e       = 1.000224002e+52
TIME= 1.118278348e-07 RHO*K       = 2.297517618e+46
TIME= 1.118278348e-07 RHO*E       = 1.000226299e+52

[STEP 10] Coarse TimeStep time: 43.19221783
[STEP 10] FAB kilobyte spread across MPI nodes: [1652412 ... 1705006]

STEP = 10 TIME = 1.118278348e-07 DT = 1.65449683e-08


Ending run at 17:00:25 UTC on 2017-12-06.
Run time = 446.9360602
Run time w/o init = 393.3852038
Unused ParmParse Variables:
[TOP]::amr.plot_vars(nvals = 1)  :: [ALL]
done.
